<?xml version="1.0" encoding="UTF-8" standalone="no"?>
<!-- Created with Inkscape (http://www.inkscape.org/) -->

<svg
   width="132.29167mm"
   height="132.29167mm"
   viewBox="0 0 132.29167 132.29167"
   version="1.1"
   id="svg2521"
   inkscape:version="1.2 (dc2aedaf03, 2022-05-15)"
   sodipodi:docname="Gift.svg"
   xmlns:inkscape="http://www.inkscape.org/namespaces/inkscape"
   xmlns:sodipodi="http://sodipodi.sourceforge.net/DTD/sodipodi-0.dtd"
   xmlns="http://www.w3.org/2000/svg"
   xmlns:svg="http://www.w3.org/2000/svg">
  <sodipodi:namedview
     id="namedview2523"
     pagecolor="#ffffff"
     bordercolor="#666666"
     borderopacity="1.0"
     inkscape:pageshadow="2"
     inkscape:pageopacity="0.0"
     inkscape:pagecheckerboard="0"
     inkscape:document-units="mm"
     showgrid="false"
     inkscape:snap-bbox="true"
     inkscape:bbox-paths="true"
     inkscape:bbox-nodes="true"
     inkscape:snap-bbox-edge-midpoints="true"
     inkscape:snap-bbox-midpoints="true"
     inkscape:object-paths="true"
     inkscape:snap-intersection-paths="true"
     inkscape:snap-smooth-nodes="true"
     inkscape:snap-midpoints="true"
     inkscape:zoom="1.4142136"
     inkscape:cx="168.99852"
     inkscape:cy="317.49094"
     inkscape:window-width="1920"
     inkscape:window-height="1011"
     inkscape:window-x="1920"
     inkscape:window-y="32"
     inkscape:window-maximized="1"
     inkscape:current-layer="layer1"
     showguides="false"
     inkscape:snap-object-midpoints="true"
     inkscape:snap-center="true"
     inkscape:showpageshadow="0"
     inkscape:deskcolor="#d1d1d1" />
  <defs
     id="defs2518" />
  <g
     inkscape:label="Layer 1"
     inkscape:groupmode="layer"
     id="layer1"
     transform="translate(-264.87567,25.525269)">
    <g
       id="g256"
       transform="matrix(0.53124999,0,0,0.53124999,155.16633,19.040822)"
       style="fill:#ffffff">
      <path
         id="path188"
         style="fill:#ffffff;stroke-width:0;paint-order:markers fill stroke"
         d="m 264.87567,19.642 v 39.6875 h 63.5 V 19.642 Z m 68.79167,0 v 39.6875 h 63.5 V 19.642 Z m -68.79167,44.979167 v 39.687503 h 63.5 V 64.621167 Z m 68.79167,0 v 39.687503 h 63.5 V 64.621167 Z" />
      <path
         id="rect5659"
         style="fill:#ffffff;stroke-width:0;paint-order:markers fill stroke"
         d="m 301.08741,-23.067276 v 11.225154 11.22515474 H 289.86226 278.63659 L 293.60363,14.350078 h 7.48378 7.48327 14.96704 14.96756 14.96705 7.48326 7.48378 L 383.40642,-0.61696726 H 372.18126 360.95559 V -11.842122 -23.067276 L 338.50528,-0.61696726 331.0215,6.866296 323.53772,-0.61696726 Z" />
    </g>
  </g>
</svg>
