<?xml version="1.0" encoding="UTF-8" standalone="no"?>
<!-- Created with Inkscape (http://www.inkscape.org/) -->

<svg
   width="251.35417mm"
   height="251.35417mm"
   viewBox="0 0 251.35417 251.35417"
   version="1.1"
   id="svg5"
   inkscape:version="1.1.2 (0a00cf5339, 2022-02-04)"
   sodipodi:docname="Shield20Empty.svg"
   xmlns:inkscape="http://www.inkscape.org/namespaces/inkscape"
   xmlns:sodipodi="http://sodipodi.sourceforge.net/DTD/sodipodi-0.dtd"
   xmlns="http://www.w3.org/2000/svg"
   xmlns:svg="http://www.w3.org/2000/svg">
  <sodipodi:namedview
     id="namedview7"
     pagecolor="#505050"
     bordercolor="#ffffff"
     borderopacity="1"
     inkscape:pageshadow="0"
     inkscape:pageopacity="0"
     inkscape:pagecheckerboard="1"
     inkscape:document-units="mm"
     showgrid="false"
     inkscape:zoom="0.5"
     inkscape:cx="129"
     inkscape:cy="498"
     inkscape:window-width="1920"
     inkscape:window-height="1011"
     inkscape:window-x="1920"
     inkscape:window-y="32"
     inkscape:window-maximized="1"
     inkscape:current-layer="layer1"
     inkscape:snap-bbox="true"
     inkscape:bbox-paths="true"
     inkscape:bbox-nodes="true"
     inkscape:snap-bbox-midpoints="true"
     inkscape:snap-bbox-edge-midpoints="true"
     inkscape:snap-intersection-paths="true"
     inkscape:object-paths="true"
     inkscape:snap-smooth-nodes="true"
     showguides="false" />
  <defs
     id="defs2">
    <inkscape:perspective
       sodipodi:type="inkscape:persp3d"
       inkscape:vp_x="17.799275 : 211.66667 : 1"
       inkscape:vp_y="0 : 1000 : 0"
       inkscape:vp_z="536.15266 : 162.75703 : 1"
       inkscape:persp3d-origin="99.218751 : 79.375006 : 1"
       id="perspective1876" />
  </defs>
  <g
     inkscape:label="Layer 1"
     inkscape:groupmode="layer"
     id="layer1"
     transform="translate(33.072918,33.072918)">
    <path
       id="circle1830-3"
       style="fill:#858c91;stroke-width:0.982114;fill-opacity:1"
       d="M 475 62.5 A 412.49996 412.49996 0 0 0 62.5 475 A 412.49996 412.49996 0 0 0 475 887.5 A 412.49996 412.49996 0 0 0 830.9668 683.26367 C 827.14636 681.06584 823.32791 678.86437 819.47852 676.64844 A 400.00003 400.00003 0 0 1 475 875 A 400.00003 400.00003 0 0 1 75 475 A 400.00003 400.00003 0 0 1 475 75 A 400.00003 400.00003 0 0 1 819.47852 273.35352 C 823.32834 271.13734 827.14785 268.93639 830.96875 266.73828 A 412.49996 412.49996 0 0 0 475 62.5 z "
       transform="matrix(0.26458333,0,0,0.26458333,-33.072918,-33.072918)" />
    <path
       id="circle1830-3-7"
       style="fill:#858c91;stroke-width:0.86307;fill-opacity:1"
       d="M 475 112.5 A 362.50001 362.50001 0 0 0 112.5 475 A 362.50001 362.50001 0 0 0 475 837.5 A 362.50001 362.50001 0 0 0 787.05273 657.98242 C 783.56346 655.97024 780.27083 654.08325 776.77539 652.06641 A 349.99999 349.99999 0 0 1 475 825 A 349.99999 349.99999 0 0 1 125 475 A 349.99999 349.99999 0 0 1 475 125 A 349.99999 349.99999 0 0 1 776.77734 297.93555 C 780.27259 295.91882 783.56558 294.03162 787.05469 292.01953 A 362.50001 362.50001 0 0 0 475 112.5 z "
       transform="matrix(0.26458333,0,0,0.26458333,-33.072918,-33.072918)" />
  </g>
</svg>
