[gd_resource type="Theme" load_steps=4 format=2]

[ext_resource path="res://Fonts/UbuntuRegular.ttf" type="DynamicFontData" id=1]

[sub_resource type="DynamicFont" id=3]
font_data = ExtResource( 1 )

[sub_resource type="StyleBoxFlat" id=4]
bg_color = Color( 0.760784, 0.741176, 0.729412, 1 )

[resource]
Button/colors/font_color = Color( 0, 0, 0, 1 )
Button/colors/font_color_disabled = Color( 0, 0, 0, 1 )
Button/colors/font_color_focus = Color( 0, 0, 0, 1 )
Button/colors/font_color_hover = Color( 0, 0, 0, 1 )
Button/colors/font_color_pressed = Color( 0, 0, 0, 1 )
Button/fonts/font = SubResource( 3 )
Button/styles/disabled = SubResource( 4 )
Button/styles/focus = SubResource( 4 )
Button/styles/hover = SubResource( 4 )
Button/styles/normal = SubResource( 4 )
Button/styles/pressed = SubResource( 4 )
