[gd_scene load_steps=7 format=2]

[ext_resource path="res://Fonts/UbuntuRegular.ttf" type="DynamicFontData" id=1]
[ext_resource path="res://Themes/InterfaceElements/PromptButton.tres" type="Theme" id=2]
[ext_resource path="res://Themes/Panels/Panel.tres" type="Theme" id=3]
[ext_resource path="res://Scripts/Popups/GameAlertPopup.gd" type="Script" id=4]

[sub_resource type="DynamicFont" id=4]
font_data = ExtResource( 1 )

[sub_resource type="Theme" id=2]
Label/colors/font_color = Color( 0, 0, 0, 1 )
Label/fonts/font = SubResource( 4 )

[node name="GameAlertPopup" type="Panel"]
margin_right = 310.0
margin_bottom = 150.0
theme = ExtResource( 3 )
script = ExtResource( 4 )

[node name="InfoLabel" type="Label" parent="."]
margin_left = 10.0
margin_top = 10.0
margin_right = 300.0
margin_bottom = 100.0
theme = SubResource( 2 )
align = 1
autowrap = true

[node name="OkButton" type="Button" parent="."]
margin_left = 10.0
margin_top = 110.0
margin_right = 300.0
margin_bottom = 140.0
theme = ExtResource( 2 )
text = "Ok"

[connection signal="pressed" from="OkButton" to="." method="_on_OkButton_pressed"]
