[gd_scene load_steps=3 format=2]

[ext_resource path="res://Themes/InterfaceElements/Menu.tres" type="Theme" id=1]
[ext_resource path="res://Scripts/Popups/MenuNoticePopup.gd" type="Script" id=2]

[node name="MenuNoticePopup" type="Panel"]
margin_right = 310.0
margin_bottom = 150.0
theme = ExtResource( 1 )
script = ExtResource( 2 )

[node name="InfoLabel" type="Label" parent="."]
margin_left = 10.0
margin_top = 10.0
margin_right = 300.0
margin_bottom = 100.0
theme = ExtResource( 1 )
align = 1
autowrap = true

[node name="OkButton" type="Button" parent="."]
margin_left = 10.0
margin_top = 110.0
margin_right = 300.0
margin_bottom = 140.0
theme = ExtResource( 1 )
text = "Ok"

[connection signal="pressed" from="OkButton" to="." method="_on_OkButton_pressed"]
